About to transcode 3 SVG file(s)

Converting mapWaadt.svg to /Users/giles/git/csrv14/JAVA/Team7/scripts/./scratch/mapWaadt.png ... ... success
Converting mapSpain.svg to /Users/giles/git/csrv14/JAVA/Team7/scripts/./scratch/mapSpain.png ... ... success
Converting sydney.svg to /Users/giles/git/csrv14/JAVA/Team7/scripts/./scratch/sydney.png ... ... success
